{
  "results": [
    {
      "popularity": 127.801,
      "vote_count": 7794,
      "video": false,
      "poster_path": "/7IiTTgloJzvGI1TAYymCfbfl3vT.jpg",
      "id": 496243,
      "adult": false,
      "backdrop_path": "/ApiBzeaa95TNYliSbQ8pJv4Fje7.jpg",
      "original_language": "ko",
      "original_title": "기생충",
      "genre_ids": [
        35,
        18,
        53
      ],
      "title": "Parasite",
      "vote_average": 8.5,
      "overview": "All unemployed, Ki-taek's family takes peculiar interest in the wealthy and glamorous Parks for their livelihood until they get entangled in an unexpected incident.",
      "release_date": "2019-05-30"
    },
    {
      "popularity": 107.248,
      "vote_count": 2546,
      "video": false,
      "poster_path": "/8WUVHemHFH2ZIP6NWkwlHWsyrEL.jpg",
      "id": 338762,
      "adult": false,
      "backdrop_path": "/ocUrMYbdjknu2TwzMHKT9PBBQRw.jpg",
      "original_language": "en",
      "original_title": "Bloodshot",
      "genre_ids": [
        28,
        878
      ],
      "title": "Bloodshot",
      "vote_average": 7,
      "overview": "After he and his wife are murdered, marine Ray Garrison is resurrected by a team of scientists. Enhanced with nanotechnology, he becomes a superhuman, biotech killing machine—'Bloodshot'. As Ray first trains with fellow super-soldiers, he cannot recall anything from his former life. But when his memories flood back and he remembers the man that killed both him and his wife, he breaks out of the facility to get revenge, only to discover that there's more to the conspiracy than he thought.",
      "release_date": "2020-03-05"
    },
    {
      "popularity": 90.98,
      "vote_count": 798,
      "video": false,
      "poster_path": "/wxPhn4ef1EAo5njxwBkAEVrlJJG.jpg",
      "id": 514847,
      "adult": false,
      "backdrop_path": "/naXUDz0VGK7aaPlEpsuYW8kNVsr.jpg",
      "original_language": "en",
      "original_title": "The Hunt",
      "genre_ids": [
        28,
        27,
        53
      ],
      "title": "The Hunt",
      "vote_average": 6.7,
      "overview": "Twelve strangers wake up in a clearing. They don't know where they are—or how they got there. In the shadow of a dark internet conspiracy theory, ruthless elitists gather at a remote location to hunt humans for sport. But their master plan is about to be derailed when one of the hunted turns the tables on her pursuers.",
      "release_date": "2020-03-11"
    },
    {
      "popularity": 84.521,
      "vote_count": 15,
      "video": false,
      "poster_path": "/nrW048JoWofimI5AKXDTBzvxqRr.jpg",
      "id": 509585,
      "adult": false,
      "backdrop_path": "/y6nOwPsMzEj5DmwPtr2OsH6EiGS.jpg",
      "original_language": "en",
      "original_title": "7500",
      "genre_ids": [
        18,
        53
      ],
      "title": "7500",
      "vote_average": 4.9,
      "overview": "A pilot's aircraft is hi-jacked by terrorists.",
      "release_date": "2019-12-26"
    },
    {
      "popularity": 59.826,
      "vote_count": 1372,
      "video": false,
      "poster_path": "/jtrhTYB7xSrJxR1vusu99nvnZ1g.jpg",
      "id": 522627,
      "adult": false,
      "backdrop_path": "/tintsaQ0WLzZsTMkTiqtMB3rfc8.jpg",
      "original_language": "en",
      "original_title": "The Gentlemen",
      "genre_ids": [
        28,
        35,
        80
      ],
      "title": "The Gentlemen",
      "vote_average": 7.7,
      "overview": "American expat Mickey Pearson has built a highly profitable marijuana empire in London. When word gets out that he’s looking to cash out of the business forever it triggers plots, schemes, bribery and blackmail in an attempt to steal his domain out from under him.",
      "release_date": "2020-01-01"
    },
    {
      "popularity": 39.003,
      "vote_count": 62,
      "video": false,
      "poster_path": "/m2rJGjlesDKxugl7ypW8n3Mipjl.jpg",
      "id": 620883,
      "adult": false,
      "backdrop_path": "/prnq2ONhqo9Tga7dOMZKgFJMofs.jpg",
      "original_language": "es",
      "original_title": "La corazonada",
      "genre_ids": [
        80,
        53
      ],
      "title": "Intuition",
      "vote_average": 6.1,
      "overview": "Police officer Pipa works on her first big case while simultaneously investigating her boss, who is suspected of murder. The prequel to \"Perdida\".",
      "release_date": "2020-05-28"
    },
    {
      "popularity": 46.893,
      "vote_count": 1244,
      "video": false,
      "poster_path": "/gzlbb3yeVISpQ3REd3Ga1scWGTU.jpg",
      "id": 443791,
      "adult": false,
      "backdrop_path": "/ww7eC3BqSbFsyE5H5qMde8WkxJ2.jpg",
      "original_language": "en",
      "original_title": "Underwater",
      "genre_ids": [
        28,
        27,
        878,
        53
      ],
      "title": "Underwater",
      "vote_average": 6.3,
      "overview": "After an earthquake destroys their underwater station, six researchers must navigate two miles along the dangerous, unknown depths of the ocean floor to make it to safety in a race against time.",
      "release_date": "2020-01-08"
    },
    {
      "popularity": 44.59,
      "vote_count": 1336,
      "video": false,
      "poster_path": "/33VdppGbeNxICrFUtW2WpGHvfYc.jpg",
      "id": 481848,
      "adult": false,
      "backdrop_path": "/9sXHqZTet3Zg5tgcc0hCDo8Tn35.jpg",
      "original_language": "en",
      "original_title": "The Call of the Wild",
      "genre_ids": [
        12,
        18,
        10751
      ],
      "title": "The Call of the Wild",
      "vote_average": 7.4,
      "overview": "Buck is a big-hearted dog whose blissful domestic life is turned upside down when he is suddenly uprooted from his California home and transplanted to the exotic wilds of the Yukon during the Gold Rush of the 1890s. As the newest rookie on a mail delivery dog sled team—and later its leader—Buck experiences the adventure of a lifetime, ultimately finding his true place in the world and becoming his own master.",
      "release_date": "2020-02-19"
    },
    {
      "popularity": 55.359,
      "vote_count": 66,
      "video": false,
      "poster_path": "/suORidtGKPO6tWwNqiwGvNo85z3.jpg",
      "id": 565743,
      "adult": false,
      "backdrop_path": "/lVSMgZUBE4XTVaPBEBAczre4f1W.jpg",
      "original_language": "en",
      "original_title": "The Vast of Night",
      "genre_ids": [
        9648,
        878
      ],
      "title": "The Vast of Night",
      "vote_average": 6.7,
      "overview": "At the dawn of the space-race, two radio-obsessed teens discover a strange frequency over the airwaves in what becomes the most important night of their lives and in the history of their small town.",
      "release_date": "2020-05-15"
    },
    {
      "popularity": 41.165,
      "vote_count": 107,
      "video": false,
      "poster_path": "/niyXFhGIk4W2WTcX2Eod8vx2Mfe.jpg",
      "id": 686245,
      "adult": false,
      "backdrop_path": "/cVnCwyaKP7exbgaCMR9DJS4xleZ.jpg",
      "original_language": "en",
      "original_title": "Survive the Night",
      "genre_ids": [
        28,
        53
      ],
      "title": "Survive the Night",
      "vote_average": 5.7,
      "overview": "A disgraced doctor and his family are held hostage at their home by criminals on the run, when a robbery-gone-awry requires them to seek immediate medical attention.",
      "release_date": "2020-05-22"
    },
    {
      "popularity": 41.118,
      "vote_count": 537,
      "video": false,
      "poster_path": "/c01Y4suApJ1Wic2xLmaq1QYcfoZ.jpg",
      "id": 618344,
      "adult": false,
      "backdrop_path": "/sQkRiQo3nLrQYMXZodDjNUJKHZV.jpg",
      "original_language": "en",
      "original_title": "Justice League Dark: Apokolips War",
      "genre_ids": [
        28,
        12,
        16,
        14,
        878
      ],
      "title": "Justice League Dark: Apokolips War",
      "vote_average": 8.5,
      "overview": "Earth is decimated after intergalactic tyrant Darkseid has devastated the Justice League in a poorly executed war by the DC Super Heroes. Now the remaining bastions of good – the Justice League, Teen Titans, Suicide Squad and assorted others – must regroup, strategize and take the war to Darkseid in order to save the planet and its surviving inhabitants.",
      "release_date": "2020-05-05"
    },
    {
      "popularity": 36.915,
      "vote_count": 4,
      "video": false,
      "poster_path": "/vrRdF1vIhZFKJm3kHwIQFH6sOD4.jpg",
      "id": 706783,
      "adult": false,
      "backdrop_path": "/6jCOU7gnjS1z8izCwRrdHn0CXwq.jpg",
      "original_language": "hi",
      "original_title": "Choked: Paisa Bolta Hai",
      "genre_ids": [
        80,
        18,
        53
      ],
      "title": "Choked: Paisa Bolta Hai",
      "vote_average": 6.4,
      "overview": "A bank employee weighed down by her jobless husband's debts - and her own broken dreams - finds a secret source of seemingly unlimited cash in her home.",
      "release_date": "2020-06-05"
    },
    {
      "popularity": 40.264,
      "vote_count": 2,
      "video": false,
      "poster_path": "/cDbOrc2RtIA37nLm0CzVpFLrdaG.jpg",
      "id": 513584,
      "adult": false,
      "backdrop_path": "/p19ZPz9lWSYb7BpQOIU689A1Ts7.jpg",
      "original_language": "en",
      "original_title": "Think Like a Dog",
      "genre_ids": [
        35,
        10751
      ],
      "title": "Think Like a Dog",
      "vote_average": 3,
      "overview": "A 12-year-old tech prodigy whose science experiment goes awry and he forges a telepathic connection with his best friend, his dog. The duo join forces and use their unique perspectives on life to comically overcome complications of family and school.",
      "release_date": "2020-06-05"
    },
    {
      "popularity": 46.183,
      "vote_count": 786,
      "video": false,
      "poster_path": "/4YJNp1cquIkX8JxFwkKNEFQ9tgr.jpg",
      "id": 522212,
      "adult": false,
      "backdrop_path": "/zNqsGEWHlXwFw8wod0HDkgrvsl8.jpg",
      "original_language": "en",
      "original_title": "Just Mercy",
      "genre_ids": [
        80,
        18
      ],
      "title": "Just Mercy",
      "vote_average": 8,
      "overview": "The powerful true story of Harvard-educated lawyer Bryan Stevenson, who goes to Alabama to defend the disenfranchised and wrongly condemned — including Walter McMillian, a man sentenced to death despite evidence proving his innocence. Bryan fights tirelessly for Walter with the system stacked against them.",
      "release_date": "2019-12-25"
    },
    {
      "popularity": 32.395,
      "vote_count": 3217,
      "video": false,
      "poster_path": "/8ZX18L5m6rH5viSYpRnTSbb9eXh.jpg",
      "id": 619264,
      "adult": false,
      "backdrop_path": "/3tkDMNfM2YuIAJlvGO6rfIzAnfG.jpg",
      "original_language": "es",
      "original_title": "El hoyo",
      "genre_ids": [
        18,
        878,
        53
      ],
      "title": "The Platform",
      "vote_average": 7,
      "overview": "A mysterious place, an indescribable prison, a deep hole. An unknown number of levels. Two inmates living on each level. A descending platform containing food for all of them. An inhuman fight for survival, but also an opportunity for solidarity…",
      "release_date": "2019-11-08"
    },
    {
      "popularity": 33.92,
      "vote_count": 18,
      "video": false,
      "poster_path": "/nZzOPD5EPLWss5t3ZCrkpEkuBxl.jpg",
      "id": 647785,
      "adult": false,
      "backdrop_path": "/vXUX7Qi4rtOh2TxqA1eB2CU6QAo.jpg",
      "original_language": "en",
      "original_title": "Debt Collectors",
      "genre_ids": [
        28,
        35,
        80
      ],
      "title": "Debt Collectors",
      "vote_average": 4.6,
      "overview": "A pair of debt collectors are thrust into an explosively dangerous situation, chasing down various lowlifes while also evading a vengeful kingpin.",
      "release_date": "2020-05-29"
    },
    {
      "popularity": 33.34,
      "vote_count": 768,
      "video": false,
      "poster_path": "/7W0G3YECgDAfnuiHG91r8WqgIOe.jpg",
      "id": 446893,
      "adult": false,
      "backdrop_path": "/qsxhnirlp7y4Ae9bd11oYJSX59j.jpg",
      "original_language": "en",
      "original_title": "Trolls World Tour",
      "genre_ids": [
        12,
        16,
        35,
        14,
        10402,
        10751
      ],
      "title": "Trolls World Tour",
      "vote_average": 7.6,
      "overview": "Queen Poppy and Branch make a surprising discovery — there are other Troll worlds beyond their own, and their distinct differences create big clashes between these various tribes. When a mysterious threat puts all of the Trolls across the land in danger, Poppy, Branch, and their band of friends must embark on an epic quest to create harmony among the feuding Trolls to unite them against certain doom.",
      "release_date": "2020-03-12"
    },
    {
      "popularity": 22.426,
      "vote_count": 323,
      "video": false,
      "poster_path": "/sm8iVzA7kRp0d4BSIsgXjsSBMKV.jpg",
      "id": 556678,
      "adult": false,
      "backdrop_path": "/5GbkL9DDRzq3A21nR7Gkv6cFGjq.jpg",
      "original_language": "en",
      "original_title": "Emma.",
      "genre_ids": [
        35,
        18,
        10749
      ],
      "title": "Emma.",
      "vote_average": 7,
      "overview": "In 1800s England, a well-meaning but selfish young woman meddles in the love lives of her friends.",
      "release_date": "2020-02-13"
    },
    {
      "popularity": 26.486,
      "vote_count": 530,
      "video": false,
      "poster_path": "/p9vCAVhDK375XyobVcKqzqzsUHE.jpg",
      "id": 501907,
      "adult": false,
      "backdrop_path": "/w0tJot6O0UtLVBRIPAdg3dQ2oNO.jpg",
      "original_language": "en",
      "original_title": "A Beautiful Day in the Neighborhood",
      "genre_ids": [
        18
      ],
      "title": "A Beautiful Day in the Neighborhood",
      "vote_average": 7.1,
      "overview": "An award-winning cynical journalist, Lloyd Vogel, begrudgingly accepts an assignment to write an Esquire profile piece on the beloved television icon Fred Rogers. After his encounter with Rogers, Vogel's perspective on life is transformed.",
      "release_date": "2019-09-07"
    },
    {
      "popularity": 25.228,
      "vote_count": 9,
      "video": false,
      "poster_path": "/oyG9TL7FcRP4EZ9Vid6uKzwdndz.jpg",
      "id": 696374,
      "adult": false,
      "backdrop_path": "/fDTPiqCynPQIkojfzdeyRHpw99S.jpg",
      "original_language": "en",
      "original_title": "Gabriel's Inferno",
      "genre_ids": [
        10749
      ],
      "title": "Gabriel's Inferno",
      "vote_average": 6.6,
      "overview": "An intriguing and sinful exploration of seduction, forbidden love, and redemption, Gabriel's Inferno is a captivating and wildly passionate tale of one man's escape from his own personal hell as he tries to earn the impossible--forgiveness and love.",
      "release_date": "2020-05-29"
    }
  ],
  "page": 1,
  "total_results": 636,
  "dates": {
    "maximum": "2020-06-07",
    "minimum": "2020-04-20"
  },
  "total_pages": 32
}
